lab_0/simulation/qsim/lab_0.msim.vcd
$comment
	File created using the following command:
		vcd file lab_0.msim.vcd -direction
$end
$date
	Thu Sep 17 16:12:48 2020
$end
$version
	ModelSim Version 2020.1
$end
$timescale
	1ps
$end

$scope module zzz_vlg_vec_tst $end
$var reg 8 ! SW [7:0] $end
$var wire 1 " LEDR [9] $end
$var wire 1 # LEDR [8] $end
$var wire 1 $ LEDR [7] $end
$var wire 1 % LEDR [6] $end
$var wire 1 & LEDR [5] $end
$var wire 1 ' LEDR [4] $end
$var wire 1 ( LEDR [3] $end
$var wire 1 ) LEDR [2] $end
$var wire 1 * LEDR [1] $end
$var wire 1 + LEDR [0] $end

$scope module i1 $end
$var wire 1 , gnd $end
$var wire 1 - vcc $end
$var wire 1 . unknown $end
$var tri1 1 / devclrn $end
$var tri1 1 0 devpor $end
$var tri1 1 1 devoe $end
$var wire 1 2 ~QUARTUS_CREATED_GND~I_combout $end
$var wire 1 3 SW[2]~input_o $end
$var wire 1 4 SW[7]~input_o $end
$var wire 1 5 SW[3]~input_o $end
$var wire 1 6 SW[6]~input_o $end
$var wire 1 7 SW[1]~input_o $end
$var wire 1 8 SW[5]~input_o $end
$var wire 1 9 SW[4]~input_o $end
$var wire 1 : SW[0]~input_o $end
$var wire 1 ; WideNor0~0_combout $end
$var wire 1 < WideNor0~combout $end
$upscope $end
$upscope $end
$enddefinitions $end
#0
$dumpvars
b11110100 !
0+
0*
0)
0(
0'
0&
0%
0$
0#
0"
0,
1-
x.
1/
10
11
02
13
14
05
16
07
18
19
0:
0;
1<
$end
#5000
b11110110 !
b1110110 !
17
04
#10000
b1111110 !
b1111010 !
b1111011 !
b111011 !
b11011 !
1:
03
15
08
06
#15000
b1011 !
b1111 !
b1110 !
b1001110 !
b1101110 !
0:
13
09
18
16
1;
#20000
b1101100 !
b11101100 !
b11111100 !
b11111101 !
1:
07
19
14
0<
0;
1+
1<
0+
#25000
b11111001 !
b11011001 !
03
08
1;
#30000
b11010001 !
b10010001 !
b10010011 !
b10011 !
b11 !
b10 !
b100010 !
0:
17
05
09
18
06
04
0<
1+
#35000
b101010 !
b101000 !
b111000 !
b111001 !
1:
07
15
19
0;
1<
0+
#40000
b1111001 !
b11111001 !
b11111011 !
b11101011 !
b11101010 !
0:
17
09
16
14
1;
#45000
b11001010 !
b11000010 !
b10000010 !
05
08
06
0;
#50000
b10000110 !
b10010110 !
b10010111 !
1:
13
19
#55000
b10111 !
b1010111 !
b1010011 !
b1000011 !
b1000010 !
0:
03
09
16
04
#60000
b1000000 !
b1100000 !
b1101000 !
b101000 !
07
15
18
06
#65000
b10101000 !
b10101100 !
b10111100 !
b10111110 !
b10011110 !
17
13
19
08
14
#70000
b10011111 !
b10011011 !
b10001011 !
b10001001 !
b10101001 !
1:
07
03
09
18
#75000
b11101001 !
b1101001 !
b1101101 !
b1111101 !
b1111111 !
17
13
19
16
04
1;
#80000
b1110111 !
b1110110 !
b1010110 !
b11010110 !
b11010100 !
0:
07
05
08
14
0;
#85000
b11011100 !
b11111100 !
15
18
#90000
b10111100 !
b111100 !
b11100 !
08
06
04
#95000
b11000 !
b11010 !
b10010 !
b1010010 !
b11010010 !
b11110010 !
17
03
05
18
16
14
#100000
b11111010 !
b1111010 !
15
04
#105000
b1011010 !
08
#110000
b1011110 !
b1011100 !
b11100 !
b10100 !
b10010100 !
07
13
05
06
14
#115000
b10000100 !
b10000101 !
b10000111 !
b10001111 !
1:
17
15
09
#120000
b10001011 !
b1011 !
b11011 !
03
19
04
#125000
b111011 !
b111010 !
b111110 !
0:
13
18
#130000
b111100 !
b110100 !
b10110100 !
b10110101 !
b10110001 !
1:
07
03
05
14
#135000
b11110001 !
b11100001 !
b11100011 !
17
09
16
#140000
b11000011 !
b11001011 !
b1001011 !
b1001010 !
b1001110 !
0:
13
15
08
04
#145000
b1110 !
b11110 !
b10110 !
b10010110 !
b10010010 !
03
05
19
06
14
#150000
b11010010 !
b11011010 !
b1011010 !
15
16
04
#155000
b1011000 !
b1011001 !
b1001001 !
b1001101 !
b1000101 !
1:
07
13
05
09
#160000
b1100101 !
b100101 !
b110101 !
b110001 !
03
19
18
06
#165000
b100001 !
09
#170000
b100011 !
b100010 !
b100110 !
b110110 !
0:
17
13
19
#175000
b10110110 !
b10010110 !
b11010110 !
b11010100 !
b11010101 !
b11000101 !
1:
07
09
08
16
14
#185000
b11001101 !
b11001001 !
b11001011 !
b11001010 !
b11011010 !
0:
17
03
15
19
#190000
b1011010 !
b1111010 !
b1110010 !
b1110011 !
b1100011 !
1:
05
09
18
04
#195000
b100011 !
b10100011 !
b10000011 !
b10001011 !
b10011011 !
15
19
08
06
14
#200000
b10011001 !
b10010001 !
b10000001 !
07
05
09
#205000
b10000000 !
b11000000 !
b11000010 !
b11010010 !
0:
17
19
16
#210000
b11010110 !
b11011110 !
13
15
#215000
b11111110 !
b10111110 !
b10110110 !
05
18
06
#220000
b10110111 !
b11110111 !
1:
16
1;
#225000
b1110111 !
b1100111 !
b1000111 !
b1000110 !
b110 !
0:
09
08
06
04
0;
#230000
b10000110 !
b10010110 !
b10110110 !
b10110111 !
b11110111 !
1:
19
18
16
14
1;
#235000
b11111111 !
b11101111 !
b11101110 !
b10101110 !
0:
15
09
06
#240000
b10101100 !
b101100 !
b100100 !
b100101 !
b1100101 !
1:
07
05
16
04
0<
0;
1+
1<
0+
#245000
b1100001 !
b1100011 !
b1101011 !
b101011 !
17
03
15
06
#250000
b111011 !
b10111011 !
b10111001 !
b10110001 !
07
05
19
14
#255000
b10110000 !
b11110000 !
b11100000 !
b11100010 !
b11101010 !
0:
17
15
09
16
1;
#260000
b11001010 !
b11001110 !
b11011110 !
b11011100 !
07
13
19
08
0;
0<
1+
1<
0+
#265000
b1011100 !
b1010100 !
b1110100 !
b1110110 !
17
05
18
04
#270000
b1110111 !
b110111 !
b110011 !
1:
03
06
1;
0<
1+
#275000
b111011 !
b11011 !
b11001 !
b11000 !
b1011000 !
b1011100 !
0:
07
13
15
08
16
1<
0;
0+
#280000
b1001100 !
b1000100 !
b1000000 !
03
05
09
1;
#285000
b11000000 !
b11000001 !
b11010001 !
b11011001 !
b11011101 !
1:
13
15
19
14
0<
1+
#290000
b11111101 !
b11111111 !
b10111111 !
b111111 !
b101111 !
b101011 !
17
03
09
18
06
04
1<
0;
0+
#295000
b101010 !
b100010 !
b110010 !
b110110 !
0:
13
05
19
#300000
b110100 !
b1110100 !
07
16
#305000
b11110100 !
b11110101 !
b11100101 !
b11100001 !
1:
03
09
14
#310000
b11000001 !
b11000011 !
b10000011 !
b10000010 !
b10010010 !
0:
17
19
08
06
#315000
b10110010 !
b10100010 !
09
18
1;
#320000
b100010 !
b100110 !
b1100110 !
b1100111 !
b1110111 !
1:
13
19
16
04
0<
1+
#325000
b1111111 !
b1011111 !
b1011011 !
03
15
08
0;
1<
0+
#330000
b1011001 !
b1011000 !
b1001000 !
b1101000 !
0:
07
09
18
#335000
b11101000 !
b10101000 !
b10100000 !
b10100100 !
b10100101 !
b10000101 !
1:
13
05
08
06
14
#340000
b10010101 !
b10101 !
b1010101 !
b1011101 !
b1011100 !
b1111100 !
0:
15
19
18
16
04
#345000
b1111110 !
b1111010 !
b1101010 !
b11101010 !
b11101011 !
1:
17
03
09
14
#350000
b1101011 !
04
#355000
b1100011 !
b1000011 !
b1000001 !
b1000000 !
b11000000 !
0:
07
05
08
14
1;
#360000
b10000000 !
b10010000 !
b10110000 !
19
18
06
0;
#365000
b10110100 !
b10111100 !
b10011100 !
13
15
08
#370000
b10011110 !
b11110 !
b1110 !
b1010 !
b10 !
b100010 !
17
03
05
09
18
04
1;
0<
1+
#375000
b100011 !
b1100011 !
b11100011 !
b11100111 !
b11000111 !
1:
13
08
16
14
1<
0;
0+
#380000
b11000101 !
b11010101 !
b11011101 !
b11011100 !
b10011100 !
b10011000 !
0:
07
03
15
19
06
#385000
b10011010 !
b10011011 !
b11011011 !
1:
17
16
#390000
b1011011 !
b1111011 !
b1101011 !
b1100011 !
b1100111 !
b1100101 !
07
13
05
09
18
04
#395000
b100101 !
b10100101 !
b10000101 !
b10010101 !
b10010111 !
17
19
08
06
14
#400000
b10000111 !
09
#405000
b10000110 !
b10001110 !
b10101110 !
b10101100 !
b10111100 !
0:
07
15
19
18
#410000
b10111000 !
b11111000 !
b1111000 !
b1111001 !
b1011001 !
b1011011 !
b1001011 !
1:
17
03
09
08
16
04
#415000
b11001011 !
b11001010 !
b11001000 !
0:
07
14
1;
#420000
b11000000 !
b11010000 !
b1010000 !
05
19
04
0;
#425000
b11010000 !
14
#430000
b11010100 !
b11010101 !
b11011101 !
b11001101 !
1:
13
15
09
#435000
b11101101 !
b11101111 !
b1101111 !
b1101110 !
b1100110 !
b1110110 !
0:
17
05
19
18
04
#440000
b110110 !
b110010 !
b10010 !
b10000 !
b10001 !
1:
07
03
08
06
1;
0<
1+
#445000
b10010001 !
b10011001 !
b10001001 !
b10001101 !
b10101101 !
13
15
09
18
14
1<
0;
0+
#450000
b10101111 !
b101111 !
b100111 !
b110111 !
b110011 !
17
03
05
19
04
1;
0<
1+
#455000
b110010 !
b10110010 !
0:
14
1<
0;
0+
#460000
b10010010 !
b10000010 !
b10000110 !
b10000111 !
1:
13
09
08
#465000
b10000101 !
b10001101 !
b10101101 !
b10101100 !
0:
07
15
18
#470000
b101100 !
b111100 !
b111110 !
b11110 !
b11111 !
1:
17
19
08
04
#475000
b11011 !
b10011 !
b10010011 !
b10000011 !
b10100011 !
b10100010 !
0:
03
05
09
18
14
1;
#480000
b10000010 !
08
0;
#485000
b10000110 !
b110 !
b111 !
b100111 !
1:
13
18
04
#490000
b100101 !
b101101 !
b111101 !
b111001 !
b111000 !
b11000 !
0:
07
03
15
19
08
#495000
b11100 !
b11101 !
b111101 !
1:
13
18
#500000
b111111 !
b110111 !
b100111 !
b100110 !
0:
17
05
09
1;
#505000
b101110 !
b111110 !
b111111 !
1:
15
19
#510000
b111011 !
b11011 !
03
08
0;
#515000
b1011011 !
b1011001 !
b1011000 !
b1011100 !
0:
07
13
16
#520000
b11100 !
b11101 !
1:
06
1;
#525000
b10101 !
b110101 !
b110111 !
b1110111 !
17
05
18
16
0<
1+
#530000
b1100111 !
b1100011 !
b1100010 !
b1000010 !
b1000000 !
0:
07
03
09
08
1<
0+
#535000
b1010000 !
b1010100 !
b1010110 !
17
13
19
0;
0<
1+
1<
0+
#540000
b11010110 !
b10010110 !
b10010111 !
b10010011 !
b10010001 !
1:
07
03
06
14
1;
#545000
b10011001 !
b10111001 !
b111001 !
b111101 !
13
15
18
04
0;
#550000
b101101 !
b101111 !
b100111 !
b10100111 !
17
05
09
14
#555000
b10100110 !
b10000110 !
b10000010 !
b10010010 !
b10010 !
0:
03
19
08
04
#560000
b1010010 !
b1010000 !
b1010001 !
b1010101 !
1:
07
13
16
1;
0<
1+
#565000
b1110101 !
b1110100 !
0:
18
0;
1<
0+
#570000
b1111100 !
b1101100 !
b1101000 !
b1101001 !
1:
03
15
09
#575000
b11101001 !
b10101001 !
b10101011 !
b10101010 !
0:
17
06
14
1;
0<
1+
#580000
b10001010 !
b10000010 !
b10010010 !
b10010110 !
b10010100 !
07
13
05
19
08
0;
1<
0+
#585000
b10011100 !
b10011110 !
17
15
#590000
b11110 !
b1011110 !
b1011111 !
b1111111 !
b1101111 !
b1100111 !
b1100101 !
1:
07
05
09
18
16
04
#595000
b11100101 !
b10100101 !
b10000101 !
b10010101 !
b10010111 !
17
19
08
06
14
#600000
b10010011 !
b10010010 !
b10011010 !
b10111010 !
0:
03
15
18
#605000
b111010 !
b101010 !
b101110 !
b100110 !
13
05
09
04
1;
#610000
b1100110 !
16
0<
1+
#615000
b1000110 !
b1010110 !
b1011110 !
15
19
08
0;
1<
0+
#620000
b1011100 !
b1011101 !
b11011101 !
b11011001 !
1:
07
03
14
1;
#625000
b10011001 !
b10010001 !
b10010011 !
b10010010 !
b10010 !
b10110 !
0:
17
13
05
06
04
0;
#630000
b1010110 !
b1010100 !
b1010101 !
b1010001 !
1:
07
03
16
1;
#635000
b1110001 !
b1100001 !
b1101001 !
b101001 !
15
09
18
06
0;
#640000
b10101001 !
b10101101 !
b10100101 !
13
05
14
#645000
b100101 !
04
#650000
b101 !
b10101 !
b1010101 !
b1011101 !
b11011101 !
15
19
08
16
14
1;
0<
1+
#655000
b11011100 !
b11111100 !
b11101100 !
b10101100 !
0:
09
18
06
1<
0;
0+
#660000
b10101000 !
b10001000 !
b11001000 !
03
08
16
1;
#665000
b11000000 !
b1000000 !
b1010000 !
b1010100 !
b1110100 !
13
05
19
18
04
0<
0;
1+
1<
0+
#670000
b1110101 !
b110101 !
b10101 !
1:
08
06
1;
#675000
b10111 !
b11111 !
b1111 !
b1011 !
b1010 !
b101010 !
0:
17
03
15
09
18
#680000
b1101010 !
b1100010 !
b1110010 !
b1110110 !
13
05
19
16
0<
0;
1+
1<
0+
#690000
b11110110 !
b11110111 !
b11110011 !
1:
03
14
1;
#695000
b11110001 !
b11010001 !
b10010001 !
b10011001 !
b10001001 !
b10001101 !
07
13
15
09
08
06
0;
#700000
b10001100 !
b11001100 !
b11001000 !
0:
03
16
1;
#705000
b1001000 !
b1101000 !
b1100000 !
b1100001 !
b1100101 !
1:
13
05
18
04
0<
0;
1+
1<
0+
#710000
b1100111 !
b1110111 !
b110111 !
b10110111 !
b10110110 !
0:
17
19
06
14
#715000
b10010110 !
b10011110 !
b10001110 !
b1110 !
b1111 !
1:
15
09
08
04
#720000
b1101 !
b101101 !
b100101 !
b110101 !
07
05
19
18
#725000
b1110101 !
b1110100 !
b1111100 !
0:
15
16
#730000
b1111000 !
b1111010 !
b1011010 !
b1011011 !
b1010011 !
1:
17
03
05
08
#735000
b11010011 !
b10010011 !
b10010111 !
b10010101 !
b10110101 !
07
13
18
06
14
#740000
b10100101 !
b10101101 !
b11101101 !
b11101001 !
b11001001 !
03
15
09
08
16
#745000
b11001000 !
b11001010 !
b11011010 !
b11010010 !
b10010010 !
b10110010 !
0:
17
05
19
18
06
#750000
b110010 !
b110110 !
b110100 !
b1110100 !
b1010100 !
07
13
08
16
04
#755000
b1010101 !
b1000101 !
1:
09
#760000
b1001101 !
b11001101 !
b11001111 !
b10001111 !
b10011111 !
17
15
19
06
14
#765000
b10011011 !
b10111011 !
b111011 !
b111001 !
b1111001 !
07
03
18
16
04
#770000
b1110001 !
b1100001 !
b1000001 !
b1000011 !
b11 !
17
05
09
08
06
#775000
b111 !
b10000111 !
b10010111 !
b10110111 !
b10110101 !
07
13
19
18
14
#780000
b10111101 !
b11111101 !
b11111001 !
b1111001 !
b1011001 !
03
15
08
16
04
1;
#785000
b1001001 !
b1101001 !
09
18
0;
#790000
b1100001 !
b1100101 !
b11100101 !
b11000101 !
13
05
08
14
#795000
b11010101 !
b11011101 !
b1011101 !
b1111101 !
15
19
18
04
#800000
b1111100 !
b1111110 !
b111110 !
b111010 !
b101010 !
b100010 !
b10 !
0:
17
03
05
09
08
06
#805000
b10000010 !
b10000011 !
b10000001 !
b10001001 !
1:
07
15
14
#810000
b11001001 !
b11011001 !
b11011000 !
b11010000 !
0:
05
19
16
#815000
b1010000 !
b1010010 !
b10010 !
b10011 !
1:
17
06
04
#820000
b10010 !
0:
#825000
b10110 !
b110110 !
b100110 !
b10100110 !
b10100100 !
07
13
09
18
14
#830000
b10101100 !
b10001100 !
15
08
1;
#835000
b11001100 !
b11001101 !
b1001101 !
b1000101 !
1:
05
16
04
0<
0;
1+
1<
0+
#840000
b1010101 !
b1010111 !
b1110111 !
b11110111 !
b11111111 !
17
15
19
18
14
1;
0<
1+
#845000
b11111011 !
b11101011 !
b1101011 !
b1100011 !
03
05
09
04
1<
0;
0+
#850000
b100011 !
b110011 !
b10110011 !
b10111011 !
15
19
06
14
1;
0<
1+
#855000
b10011011 !
b10001011 !
b1011 !
b11 !
05
09
08
04
0;
1<
0+
#860000
b10 !
b0 !
b1000000 !
0:
07
16
1;
#865000
b11000000 !
b11000010 !
b10000010 !
17
06
14
0;
#870000
b10100010 !
b10101010 !
b10101011 !
b101011 !
b1101011 !
1:
15
18
16
04
#875000
b1101001 !
b1001001 !
b1000001 !
b1 !
07
05
08
06
#880000
b101 !
b10101 !
b10111 !
b1010111 !
17
13
19
16
#885000
b1011111 !
15
#890000
b1011011 !
b1011001 !
07
03
1;
#895000
b1011000 !
0:
0;
#900000
b11011000 !
b11011100 !
b11011110 !
17
13
14
#905000
b11111110 !
b11110110 !
b1110110 !
b1110010 !
03
05
18
04
#910000
b1100010 !
b1100011 !
b1100001 !
b11100001 !
1:
07
09
14
#915000
b10100001 !
b10101001 !
b10101101 !
b10111101 !
13
15
19
06
#920000
b10111100 !
b11111100 !
b11101100 !
0:
09
16
#925000
b10101100 !
b10111100 !
19
06
#930000
b10011100 !
b10011110 !
b11110 !
b10110 !
b10111 !
b1010111 !
b1000111 !
1:
17
05
09
08
16
04
#935000
b1001111 !
b1111 !
b11111 !
15
19
06
#940000
b11101 !
b10011101 !
b10010101 !
b11010101 !
b11000101 !
07
05
09
16
14
#945000
b11100101 !
b11100111 !
b1100111 !
b100111 !
17
18
06
04
#950000
b101111 !
15
#955000
b101011 !
b101001 !
b100001 !
07
03
05
#960000
b110001 !
b10110001 !
19
14
#965000
b10110000 !
b10010000 !
b10010100 !
b10011100 !
b10001100 !
b1100 !
0:
13
15
09
08
04
1;
#970000
b1001100 !
b1001000 !
b1000000 !
b1010000 !
03
05
19
16
0;
#975000
b1110000 !
b11110000 !
b10110000 !
b10110100 !
b10100100 !
13
09
18
06
14
#980000
b10100110 !
b10100111 !
b10101111 !
1:
17
15
#985000
b10001111 !
b1111 !
b11111 !
b11110 !
b10110 !
0:
05
19
08
04
#990000
b10010 !
b10010010 !
b10010011 !
1:
03
14
#995000
b10010001 !
b10011001 !
b10011101 !
b10011100 !
0:
07
13
15
